<?xml version="1.0" encoding="UTF-8" standalone="no"?>
<svg width="80px" height="80px" viewBox="0 0 80 80" version="1.1" xmlns="http://www.w3.org/2000/svg" xmlns:xlink="http://www.w3.org/1999/xlink">
    <!-- Generator: Sketch 3.7.2 (28276) - http://www.bohemiancoding.com/sketch -->
    <title>1</title>
    <desc>Created with Sketch.</desc>
    <defs>
        <polygon id="path-1" points="0 80 80 80 80 0 0 0"></polygon>
    </defs>
    <g id="Page-1" stroke="none" stroke-width="1" fill="none" fill-rule="evenodd">
        <g id="iPhone-SE" transform="translate(-80.000000, -171.000000)">
            <g id="1" transform="translate(80.000000, 171.000000)">
                <path d="M40,80 C62.091,80 80,62.091 80,40 C80,17.909 62.091,0 40,0 C17.909,0 0,17.909 0,40 C0,62.091 17.909,80 40,80" id="bg" fill="#4A949B"></path>
                <path d="M54.7842,16.0498 L32.6242,16.0498 C30.5042,16.0498 28.7912,17.7688 28.7912,19.8868 L28.7912,67.4588 C28.7912,69.5728 30.5042,71.2918 32.6242,71.2918 L54.7842,71.2918 C56.9002,71.2918 58.6172,69.5728 58.6172,67.4588 L58.6172,19.8868 C58.6172,17.7688 56.9002,16.0498 54.7842,16.0498" id="Fill-3" fill="#046988"></path>
                <path d="M50.7842,13.0498 L28.6242,13.0498 C26.5042,13.0498 24.7912,14.7688 24.7912,16.8868 L24.7912,64.4588 C24.7912,66.5728 26.5042,68.2918 28.6242,68.2918 L50.7842,68.2918 C52.9002,68.2918 54.6172,66.5728 54.6172,64.4588 L54.6172,16.8868 C54.6172,14.7688 52.9002,13.0498 50.7842,13.0498" id="Fill-5" fill="#282741"></path>
                <mask id="mask-2" fill="white">
                    <use xlink:href="#path-1"></use>
                </mask>
                <g id="Clip-8"></g>
                <polygon id="Fill-7" fill="#FEFEFE" mask="url(#mask-2)" points="27.665 61.057 51.746 61.057 51.746 17.879 27.665 17.879"></polygon>
                <path d="M39.707,66.5317 C38.624,66.5317 37.743,65.6497 37.743,64.5667 C37.743,63.4837 38.624,62.6057 39.707,62.6057 C40.787,62.6057 41.668,63.4837 41.668,64.5667 C41.668,65.6497 40.787,66.5317 39.707,66.5317" id="Fill-9" fill="#046988" mask="url(#mask-2)"></path>
                <path d="M48.8974,47.4526 C48.8974,42.5386 44.9134,35.2976 39.9994,35.2976 C35.0844,35.2976 31.1014,42.5386 31.1014,47.4526 C31.1014,52.3676 35.0844,53.0936 39.9994,53.0936 C44.9134,53.0936 48.8974,52.3676 48.8974,47.4526" id="Fill-10" fill="#FDB912" mask="url(#mask-2)"></path>
                <path d="M39.999,28.2485 C36.38,28.2485 35.144,29.3275 35.144,29.3275 L38.41,35.2975 L39.999,35.2975 L41.59,35.2975 L44.854,29.3275 C44.854,29.3275 43.618,28.2485 39.999,28.2485" id="Fill-11" fill="#FDB912" mask="url(#mask-2)"></path>
                <path d="M43.3076,35.2973 C43.3076,35.8143 42.8896,36.2323 42.3726,36.2323 L37.6266,36.2323 C37.1086,36.2323 36.6906,35.8143 36.6906,35.2973 C36.6906,34.7803 37.1086,34.3623 37.6266,34.3623 L42.3726,34.3623 C42.8896,34.3623 43.3076,34.7803 43.3076,35.2973" id="Fill-12" fill="#046988" mask="url(#mask-2)"></path>
                <path d="M39.8789,43.7544 C39.4939,43.6744 39.1809,43.5344 38.9509,43.3384 C38.7209,43.1374 38.6089,42.8654 38.6089,42.5194 C38.6089,42.2324 38.7059,41.9534 38.9019,41.6864 C39.0919,41.4234 39.4199,41.2834 39.8789,41.2644 L39.8789,43.7544 Z M40.3779,44.8394 C40.8119,44.9634 41.1219,45.0874 41.3039,45.2214 C41.6239,45.4554 41.7849,45.7874 41.7849,46.2274 C41.7849,46.5054 41.7269,46.7514 41.6089,46.9664 C41.3779,47.3764 40.9739,47.5944 40.3779,47.6264 L40.3779,44.8394 Z M38.6729,46.9264 C38.5509,46.7084 38.4789,46.3514 38.4479,45.8714 L37.5239,45.8714 C37.5239,46.4744 37.6209,46.9544 37.8239,47.3124 C38.1849,47.9724 38.8729,48.3384 39.8829,48.4044 L39.8829,49.4284 L40.3779,49.4284 L40.3779,48.4044 C41.0079,48.3334 41.4869,48.1904 41.8259,47.9674 C42.4199,47.5774 42.7239,46.9064 42.7239,45.9694 C42.7239,45.3214 42.4889,44.8284 42.0179,44.4964 C41.7309,44.2984 41.1829,44.0874 40.3779,43.8524 L40.3779,41.2754 C40.8559,41.2944 41.2039,41.4844 41.4239,41.8354 C41.5389,42.0334 41.6129,42.2604 41.6379,42.5284 L42.5509,42.5284 C42.5319,41.9344 42.3369,41.4524 41.9709,41.0864 C41.5999,40.7254 41.0659,40.5154 40.3779,40.4664 L40.3779,39.7714 L39.8789,39.7714 L39.8789,40.4764 C39.1809,40.4824 38.6359,40.7024 38.2519,41.1314 C37.8619,41.5624 37.6709,42.0484 37.6709,42.5824 C37.6709,43.1844 37.8509,43.6504 38.2089,43.9914 C38.5699,44.3304 39.1269,44.5704 39.8829,44.7144 L39.8829,47.5994 C39.2919,47.5504 38.8919,47.3274 38.6729,46.9264 L38.6729,46.9264 Z" id="Fill-13" fill="#FEFEFE" mask="url(#mask-2)"></path>
            </g>
        </g>
    </g>
</svg>